<svg width="373" height="2" viewBox="0 0 373 2" fill="none" xmlns="http://www.w3.org/2000/svg">
<line x1="0.5" y1="1.23145" x2="371.553" y2="1.23145" stroke="url(#paint0_linear_205_2290)" stroke-linecap="round" stroke-dasharray="1 3"/>
<defs>
<linearGradient id="paint0_linear_205_2290" x1="0" y1="1.73145" x2="372.053" y2="1.73145" gradientUnits="userSpaceOnUse">
<stop stop-color="#222839" stop-opacity="0"/>
<stop offset="0.276042" stop-color="#EDCF98"/>
<stop offset="0.703125" stop-color="#EDD098"/>
<stop offset="1" stop-color="#222839" stop-opacity="0"/>
</linearGradient>
</defs>
</svg>
